\relax 
\providecommand\hyper@newdestlabel[2]{}
\providecommand\HyperFirstAtBeginDocument{\AtBeginDocument}
\HyperFirstAtBeginDocument{\ifx\hyper@anchor\@undefined
\global\let\oldcontentsline\contentsline
\gdef\contentsline#1#2#3#4{\oldcontentsline{#1}{#2}{#3}}
\global\let\oldnewlabel\newlabel
\gdef\newlabel#1#2{\newlabelxx{#1}#2}
\gdef\newlabelxx#1#2#3#4#5#6{\oldnewlabel{#1}{{#2}{#3}}}
\AtEndDocument{\ifx\hyper@anchor\@undefined
\let\contentsline\oldcontentsline
\let\newlabel\oldnewlabel
\fi}
\fi}
\global\let\hyper@last\relax 
\gdef\HyperFirstAtBeginDocument#1{#1}
\providecommand\HyField@AuxAddToFields[1]{}
\providecommand\HyField@AuxAddToCoFields[2]{}
\@writefile{toc}{\contentsline {chapter}{List of Figures}{iii}{chapter*.4}}
\@writefile{toc}{\contentsline {chapter}{List of Tables}{iv}{chapter*.5}}
\citation{Aharony:1999ti,Gubser:1998bc,Witten:1998qj}
\citation{gubser:2008br}
\citation{hartnoll:2008holographic,herzog:2009le,Hartnoll:2007ai}
\citation{}
\citation{bibid}
\citation{}
\@writefile{toc}{\contentsline {chapter}{\numberline {1}Introduction}{1}{chapter.1}}
\@writefile{lof}{\addvspace {10\p@ }}
\@writefile{lot}{\addvspace {10\p@ }}
\citation{palatini1919deduzione}
\citation{ferraris1982variational}
\citation{cartan1922generalisation,hehl1976general,de1979strong}
\citation{hehl1981metric,hehl1978metric}
\citation{smalley1977variational}
\citation{hehl1971nonlinear}
\citation{kibble1961lorentz,sciama1964physical}
\@writefile{toc}{\contentsline {chapter}{\numberline {2}Literature Review}{3}{chapter.2}}
\@writefile{lof}{\addvspace {10\p@ }}
\@writefile{lot}{\addvspace {10\p@ }}
\citation{alexander2006gravity}
\@writefile{toc}{\contentsline {section}{\numberline {2.1}Scope of the present research work}{5}{section.2.1}}
\@writefile{toc}{\contentsline {section}{\numberline {2.2}Objectives of the research}{5}{section.2.2}}
\@writefile{toc}{\contentsline {chapter}{\numberline {3}Methodology}{6}{chapter.3}}
\@writefile{lof}{\addvspace {10\p@ }}
\@writefile{lot}{\addvspace {10\p@ }}
\@writefile{toc}{\contentsline {section}{\numberline {3.1}Path integral for bosons and Fermions}{6}{section.3.1}}
\@writefile{lof}{\contentsline {figure}{\numberline {3.1}{\ignorespaces time slicing a trajectory\relax }}{7}{figure.caption.6}}
\citation{das1993field}
\@writefile{toc}{\contentsline {paragraph}{ The path integral for fermions}{11}{section*.7}}
\citation{lancaster2014quantum}
\@writefile{toc}{\contentsline {section}{\numberline {3.2}Tetrads and connection dynamics}{13}{section.3.2}}
\@writefile{toc}{\contentsline {paragraph}{Differential forms}{13}{section*.8}}
\@writefile{toc}{\contentsline {paragraph}{}{14}{section*.9}}
\@writefile{toc}{\contentsline {paragraph}{}{14}{section*.10}}
\@writefile{toc}{\contentsline {paragraph}{Exterior derivative}{15}{section*.11}}
\@writefile{toc}{\contentsline {paragraph}{Connection}{16}{section*.12}}
\@writefile{toc}{\contentsline {paragraph}{Curvature}{17}{section*.13}}
\citation{zee2013einstein}
\@writefile{toc}{\contentsline {paragraph}{}{18}{section*.14}}
\@writefile{toc}{\contentsline {paragraph}{covariant derivative}{18}{section*.15}}
\citation{carroll2004spacetime}
\citation{dray2014differential}
\citation{zee2013einstein}
\@writefile{toc}{\contentsline {section}{\numberline {3.3}Hodge duality}{22}{section.3.3}}
\@writefile{toc}{\contentsline {section}{\numberline {3.4}Topological action and invariance}{22}{section.3.4}}
\citation{dray2014differential}
\@writefile{toc}{\contentsline {paragraph}{The Chern-Simons term}{23}{section*.16}}
\@writefile{toc}{\contentsline {section}{\numberline {3.5}Lagrangians}{24}{section.3.5}}
\@writefile{toc}{\contentsline {section}{\numberline {3.6}Gauge theory}{25}{section.3.6}}
\@writefile{toc}{\contentsline {chapter}{\numberline {4}Results and Discussions}{26}{chapter.4}}
\@writefile{lof}{\addvspace {10\p@ }}
\@writefile{lot}{\addvspace {10\p@ }}
\@writefile{toc}{\contentsline {section}{\numberline {4.1}Path integral for superconductors}{26}{section.4.1}}
\@writefile{toc}{\contentsline {section}{\numberline {4.2}Dirac equation in curved space}{29}{section.4.2}}
\@writefile{toc}{\contentsline {section}{\numberline {4.3}Holographic Action in tetrads}{31}{section.4.3}}
\citation{hawking:1975pa}
\@writefile{lof}{\contentsline {figure}{\numberline {4.1}{\ignorespaces Formation of condensate below $T_c$\relax }}{36}{figure.caption.17}}
\providecommand*\caption@xref[2]{\@setref\relax\@undefined{#1}}
\newlabel{Formation of condensate below $T_c$}{{4.1}{36}{Formation of condensate below $T_c$\relax }{figure.caption.17}{}}
\citation{Hartnoll:2007ai}
\citation{Hartnoll:2007ai}
\@writefile{toc}{\contentsline {chapter}{\numberline {5}Summary and conclusions}{37}{chapter.5}}
\@writefile{lof}{\addvspace {10\p@ }}
\@writefile{lot}{\addvspace {10\p@ }}
\@writefile{toc}{\contentsline {section}{\numberline {5.1}Summary of the work done}{37}{section.5.1}}
\@writefile{toc}{\contentsline {section}{\numberline {5.2}Conclusions}{37}{section.5.2}}
\@writefile{toc}{\contentsline {section}{\numberline {5.3}Work to be done}{38}{section.5.3}}
\@writefile{toc}{\contentsline {section}{\numberline {5.4}Plan of research work}{39}{section.5.4}}
\@writefile{lot}{\contentsline {table}{\numberline {5.1}{\ignorespaces Plan of research work\relax }}{39}{table.caption.18}}
\newlabel{Details of Work Plan}{{5.1}{39}{Plan of research work\relax }{table.caption.18}{}}
\@writefile{toc}{\contentsline {chapter}{\numberline {6}Appendix}{40}{chapter.6}}
\@writefile{lof}{\addvspace {10\p@ }}
\@writefile{lot}{\addvspace {10\p@ }}
\@writefile{toc}{\contentsline {paragraph}{Covariant derivative}{40}{section*.19}}
\@writefile{toc}{\contentsline {paragraph}{}{40}{section*.20}}
\@writefile{toc}{\contentsline {section}{\numberline {6.1}Spin connection Calculations}{41}{section.6.1}}
\bibdata{mybibprog}
\@writefile{toc}{\contentsline {section}{References}{44}{section.6.1}}
\bibcite{Aharony:1999ti}{{1}{2000}{{Aharony et~al.}}{{}}}
\bibcite{alexander2006gravity}{{2}{2006}{{Alexander and Vaid}}{{}}}
\bibcite{carroll2004spacetime}{{3}{2004}{{Carroll}}{{}}}
\bibcite{cartan1922generalisation}{{4}{1922}{{Cartan}}{{}}}
\bibcite{das1993field}{{5}{1993}{{Das}}{{}}}
\bibcite{de1979strong}{{6}{1979}{{De~Sabbata and Gasperini}}{{}}}
\bibcite{dray2014differential}{{7}{2014}{{Dray}}{{}}}
\bibcite{ferraris1982variational}{{8}{1982}{{Ferraris et~al.}}{{}}}
\bibcite{gubser:2008br}{{9}{2008}{{Gubser}}{{}}}
\bibcite{Gubser:1998bc}{{10}{1998}{{Gubser et~al.}}{{}}}
\bibcite{hartnoll:2008holographic}{{11}{2008}{{Hartnoll et~al.}}{{}}}
\bibcite{Hartnoll:2007ai}{{12}{2007}{{Hartnoll and Kovtun}}{{}}}
\bibcite{hehl1971nonlinear}{{13}{1971}{{Hehl and Datta}}{{}}}
\@writefile{toc}{\contentsline {chapter}{Bibliography}{45}{chapter*.21}}
\bibcite{hehl1978metric}{{14}{1978}{{Hehl and Kerlick}}{{}}}
\bibcite{hehl1981metric}{{15}{1981}{{Hehl et~al.}}{{}}}
\bibcite{hehl1976general}{{16}{1976}{{Hehl et~al.}}{{}}}
\bibcite{herzog:2009le}{{17}{2009}{{Herzog}}{{}}}
\bibcite{kibble1961lorentz}{{18}{1961}{{Kibble}}{{}}}
\bibcite{lancaster2014quantum}{{19}{2014}{{Lancaster and Blundell}}{{}}}
\bibcite{palatini1919deduzione}{{20}{1919}{{Palatini}}{{}}}
\bibcite{sciama1964physical}{{21}{1964}{{Sciama}}{{}}}
\bibcite{smalley1977variational}{{22}{1977}{{Smalley}}{{}}}
\bibcite{Witten:1998qj}{{23}{1998}{{Witten}}{{}}}
\bibcite{zee2013einstein}{{24}{2013}{{Zee}}{{}}}
\bibstyle{apalike}
